^E:\PROJECTS\OUTSOURCE\PTZOPTICS_AR\TRUNK\VSPTZOPTICS\JOYSTICKCONTROL\APP.RC
E:\PROJECTS\OUTSOURCE\PTZOPTICS_AR\TRUNK\VSPTZOPTICS\JOYSTICKCONTROL\RESOURCE.H
E:\PROJECTS\OUTSOURCE\PTZOPTICS_AR\TRUNK\VSPTZOPTICS\JOYSTICKCONTROL\APP.ICO
