^E:\PROJECTS\OURSOURCE\PTZOPTICS_AR\TRUNK\VSPTZOPTICS\JOYSTICKCONTROL\X64\DEBUG\.NETFRAMEWORK,VERSION=V4.7.2.ASSEMBLYATTRIBUTES.OBJ|E:\PROJECTS\OURSOURCE\PTZOPTICS_AR\TRUNK\VSPTZOPTICS\JOYSTICKCONTROL\X64\DEBUG\APP.RES|E:\PROJECTS\OURSOURCE\PTZOPTICS_AR\TRUNK\VSPTZOPTICS\JOYSTICKCONTROL\X64\DEBUG\ASSEMBLYINFO.OBJ|E:\PROJECTS\OURSOURCE\PTZOPTICS_AR\TRUNK\VSPTZOPTICS\JOYSTICKCONTROL\X64\DEBUG\JOYSTICKCONTROL.OBJ|E:\PROJECTS\OURSOURCE\PTZOPTICS_AR\TRUNK\VSPTZOPTICS\JOYSTICKCONTROL\X64\DEBUG\JOYSTICKCONTROLCORE.OBJ|E:\PROJECTS\OURSOURCE\PTZOPTICS_AR\TRUNK\VSPTZOPTICS\JOYSTICKCONTROL\X64\DEBUG\STDAFX.OBJ
E:\PROJECTS\OURSOURCE\PTZOPTICS_AR\TRUNK\VSPTZOPTICS\X64\DEBUG\JOYSTICKCONTROL.DLL
E:\PROJECTS\OURSOURCE\PTZOPTICS_AR\TRUNK\VSPTZOPTICS\X64\DEBUG\JOYSTICKCONTROL.PDB
